%YAML 1.1
%TAG !u! tag:unity3d.com,2011:
--- !u!114 &11400000
MonoBehaviour:
  m_ObjectHideFlags: 0
  m_CorrespondingSourceObject: {fileID: 0}
  m_PrefabInstance: {fileID: 0}
  m_PrefabAsset: {fileID: 0}
  m_GameObject: {fileID: 0}
  m_Enabled: 1
  m_EditorHideFlags: 0
  m_Script: {fileID: 11500000, guid: 569ada4f77dd9ab4e883ae40780dc390, type: 3}
  m_Name: w_AA_2
  m_EditorClassIdentifier: 
  price: 100
  definition: Anti Air 2
  icon: {fileID: 21300000, guid: 0f7d71d6a9f710247b8adef7ad021a65, type: 3}
  weaponBehaviour: {fileID: 3613254144760347653, guid: e76bfe29fd6c5ee43b0ffdcc3ee8639e,
    type: 3}
