%YAML 1.1
%TAG !u! tag:unity3d.com,2011:
--- !u!114 &11400000
MonoBehaviour:
  m_ObjectHideFlags: 0
  m_CorrespondingSourceObject: {fileID: 0}
  m_PrefabInstance: {fileID: 0}
  m_PrefabAsset: {fileID: 0}
  m_GameObject: {fileID: 0}
  m_Enabled: 1
  m_EditorHideFlags: 0
  m_Script: {fileID: 11500000, guid: 569ada4f77dd9ab4e883ae40780dc390, type: 3}
  m_Name: w_AG_3
  m_EditorClassIdentifier: 
  price: 60
  definition: Tank 3
  icon: {fileID: 21300000, guid: 3f71ec71b8ef0e446a713c3043380296, type: 3}
  weaponBehaviour: {fileID: 3613254144760347653, guid: 83cf19a1032b8674badfe4d5d07fec02,
    type: 3}
