%YAML 1.1
%TAG !u! tag:unity3d.com,2011:
--- !u!21 &2100000
Material:
  serializedVersion: 6
  m_ObjectHideFlags: 0
  m_CorrespondingSourceObject: {fileID: 0}
  m_PrefabInstance: {fileID: 0}
  m_PrefabAsset: {fileID: 0}
  m_Name: Explosion7
  m_Shader: {fileID: 4800000, guid: fc0ec14c27412e645b4e3680f2eb30a0, type: 3}
  m_ShaderKeywords: _USEDEPTH_ON
  m_LightmapFlags: 4
  m_EnableInstancingVariants: 1
  m_DoubleSidedGI: 0
  m_CustomRenderQueue: -1
  stringTagMap: {}
  disabledShaderPasses: []
  m_SavedProperties:
    serializedVersion: 3
    m_TexEnvs:
    - _MainTex:
        m_Texture: {fileID: 2800000, guid: 4c1c992c9b3aec84984375b1504841e9, type: 3}
        m_Scale: {x: 1, y: 1}
        m_Offset: {x: 0, y: 0}
    - _Maintexture:
        m_Texture: {fileID: 2800000, guid: 0bd3f45f746d2c7479e065ffd01f82ff, type: 3}
        m_Scale: {x: 1, y: 1}
        m_Offset: {x: 0, y: 0}
    - _Noise:
        m_Texture: {fileID: 2800000, guid: 3f0a50b62f8fb02408213337c0d37195, type: 3}
        m_Scale: {x: 12, y: 7}
        m_Offset: {x: 0, y: 0}
    - _tex3coord:
        m_Texture: {fileID: 0}
        m_Scale: {x: 1, y: 1}
        m_Offset: {x: 0, y: 0}
    m_Floats:
    - _Cutoff: 0.5
    - _Depthpower: 0.5
    - _Emission: 2
    - _FinalEmission: 1
    - _InvFade: 3
    - _Mobile: 0
    - _Opacity: 1
    - _Softparticlesfactor: 1
    - _Usedepth: 1
    - __dirty: 1
    m_Colors:
    - _Color: {r: 1, g: 1, b: 1, a: 1}
    - _GlowColor: {r: 1, g: 1, b: 0, a: 1}
    - _NoisespeedXYpowerZ: {r: 0.314, g: 0.427, b: 0.001, a: 0}
    - _TintColor: {r: 0.5176471, g: 0.5176471, b: 0.5176471, a: 0.5019608}
  m_BuildTextureStacks: []
