%YAML 1.1
%TAG !u! tag:unity3d.com,2011:
--- !u!114 &11400000
MonoBehaviour:
  m_ObjectHideFlags: 0
  m_CorrespondingSourceObject: {fileID: 0}
  m_PrefabInstance: {fileID: 0}
  m_PrefabAsset: {fileID: 0}
  m_GameObject: {fileID: 0}
  m_Enabled: 1
  m_EditorHideFlags: 0
  m_Script: {fileID: 11500000, guid: 95985bb737f73954d9a5010d7313308d, type: 3}
  m_Name: vv_3
  m_EditorClassIdentifier: 
  price: 100
  definition: Vagon Real
  icon: {fileID: 21300000, guid: 508ad451ac8d6814c94c27893add9ef4, type: 3}
  vagonHeadVisual: {fileID: -2679263680059367363, guid: f97d50aff87ab1f4b81e4e49775a7cfc,
    type: 3}
  vagonOtherVisual: {fileID: -4999475234602012738, guid: 6d78c496ec04b234b8e616905948e112,
    type: 3}
